# g    #|M_z|
0    1    1    1    1    1    1    1    1
0.0100503    0.999975    0.999987    0.999987    0.999987    0.999987    0.999987    0.999987    0.999987
0.0201005    0.999899    0.999948    0.999949    0.999949    0.999949    0.999949    0.999949    0.999949
0.0301508    0.999773    0.999883    0.999886    0.999886    0.999886    0.999886    0.999886    0.999886
0.040201    0.999596    0.99979    0.999797    0.999798    0.999798    0.999798    0.999798    0.999798
0.0502513    0.99937    0.999668    0.999683    0.999684    0.999684    0.999684    0.999684    0.999684
0.0603015    0.999093    0.999518    0.999543    0.999545    0.999545    0.999545    0.999545    0.999545
0.0703518    0.998767    0.999337    0.999376    0.99938    0.99938    0.99938    0.99938    0.99938
0.080402    0.998392    0.999126    0.999183    0.999189    0.99919    0.99919    0.99919    0.99919
0.0904523    0.997967    0.998884    0.998964    0.998973    0.998974    0.998974    0.998974    0.998974
0.100503    0.997494    0.998609    0.998717    0.99873    0.998732    0.998732    0.998732    0.998732
0.110553    0.996972    0.998301    0.998442    0.998462    0.998464    0.998464    0.998464    0.998464
0.120603    0.996403    0.99796    0.998139    0.998166    0.99817    0.99817    0.99817    0.99817
0.130653    0.995786    0.997584    0.997807    0.997845    0.997849    0.99785    0.99785    0.99785
0.140704    0.995123    0.997173    0.997446    0.997496    0.997502    0.997503    0.997504    0.997504
0.150754    0.994413    0.996726    0.997055    0.997119    0.997129    0.99713    0.99713    0.997131
0.160804    0.993658    0.996242    0.996633    0.996715    0.996728    0.99673    0.996731    0.996731
0.170854    0.992858    0.995721    0.99618    0.996283    0.9963    0.996303    0.996304    0.996304
0.180905    0.992014    0.995162    0.995694    0.995822    0.995844    0.995848    0.995849    0.995849
0.190955    0.991126    0.994565    0.995175    0.995331    0.99536    0.995366    0.995367    0.995368
0.201005    0.990195    0.993928    0.994622    0.994811    0.994848    0.994856    0.994858    0.994858
0.211055    0.989223    0.993251    0.994035    0.994261    0.994307    0.994317    0.99432    0.99432
0.221106    0.988209    0.992534    0.993411    0.993679    0.993736    0.99375    0.993753    0.993754
0.231156    0.987154    0.991776    0.992751    0.993066    0.993136    0.993154    0.993158    0.993159
0.241206    0.98606    0.990976    0.992053    0.99242    0.992505    0.992528    0.992533    0.992535
0.251256    0.984928    0.990134    0.991316    0.991741    0.991843    0.991872    0.991879    0.991881
0.261307    0.983757    0.98925    0.99054    0.991028    0.99115    0.991186    0.991195    0.991198
0.271357    0.982549    0.988323    0.989722    0.99028    0.990424    0.990468    0.99048    0.990483
0.281407    0.981306    0.987352    0.988862    0.989496    0.989665    0.989719    0.989734    0.989739
0.291457    0.980027    0.986338    0.987959    0.988674    0.988872    0.988938    0.988956    0.988962
0.301508    0.978714    0.98528    0.987012    0.987815    0.988044    0.988123    0.988146    0.988154
0.311558    0.977368    0.984178    0.986019    0.986916    0.98718    0.987275    0.987304    0.987313
0.321608    0.975989    0.983031    0.984979    0.985977    0.986279    0.986392    0.986427    0.986439
0.331658    0.97458    0.98184    0.983892    0.984997    0.98534    0.985474    0.985516    0.985532
0.341709    0.973139    0.980604    0.982755    0.983973    0.984362    0.984519    0.98457    0.98459
0.351759    0.97167    0.979323    0.981568    0.982905    0.983344    0.983527    0.983588    0.983612
0.361809    0.970172    0.977998    0.98033    0.981791    0.982284    0.982496    0.982569    0.982599
0.371859    0.968647    0.976628    0.979038    0.980631    0.98118    0.981425    0.981513    0.981548
0.38191    0.967095    0.975213    0.977693    0.979421    0.980032    0.980314    0.980417    0.98046
0.39196    0.965518    0.973754    0.976293    0.978162    0.978838    0.97916    0.97928    0.979332
0.40201    0.963916    0.97225    0.974837    0.976851    0.977596    0.977962    0.978103    0.978165
0.41206    0.962291    0.970702    0.973323    0.975487    0.976304    0.976719    0.976882    0.976956
0.422111    0.960643    0.969111    0.971751    0.974067    0.97496    0.975429    0.975617    0.975705
0.432161    0.958974    0.967476    0.97012    0.972591    0.973563    0.97409    0.974306    0.974411
0.442211    0.957284    0.965798    0.968429    0.971057    0.972111    0.972701    0.972948    0.97307
0.452261    0.955574    0.964078    0.966676    0.969463    0.9706    0.971259    0.97154    0.971683
0.462312    0.953846    0.962315    0.964862    0.967807    0.96903    0.969762    0.970081    0.970247
0.472362    0.9521    0.960511    0.962984    0.966088    0.967398    0.968208    0.968568    0.968761
0.482412    0.950337    0.958666    0.961043    0.964303    0.965702    0.966595    0.966999    0.967222
0.492462    0.948558    0.956781    0.959038    0.962452    0.963938    0.964919    0.965372    0.965628
0.502513    0.946764    0.954857    0.956968    0.960532    0.962105    0.96318    0.963685    0.963977
0.512563    0.944955    0.952894    0.954832    0.958541    0.9602    0.961373    0.961933    0.962267
0.522613    0.943133    0.950893    0.952631    0.956479    0.95822    0.959496    0.960115    0.960494
0.532663    0.941299    0.948855    0.950363    0.954343    0.956163    0.957545    0.958228    0.958656
0.542714    0.939453    0.946781    0.94803    0.952133    0.954025    0.955519    0.956267    0.95675
0.552764    0.937596    0.944672    0.94563    0.949845    0.951804    0.953412    0.95423    0.954771
0.562814    0.935729    0.942529    0.943163    0.94748    0.949498    0.951223    0.952113    0.952717
0.572864    0.933853    0.940352    0.940631    0.945036    0.947103    0.948947    0.949911    0.950584
0.582915    0.931968    0.938143    0.938032    0.942511    0.944617    0.94658    0.94762    0.948367
0.592965    0.930076    0.935904    0.935368    0.939904    0.942036    0.94412    0.945237    0.946062
0.603015    0.928176    0.933634    0.932639    0.937216    0.939359    0.941562    0.942756    0.943664
0.613065    0.92627    0.931336    0.929845    0.934444    0.936582    0.938902    0.940173    0.941168
0.623116    0.924358    0.92901    0.926987    0.931588    0.933703    0.936136    0.937483    0.93857
0.633166    0.922442    0.926658    0.924066    0.928647    0.93072    0.933261    0.93468    0.935862
0.643216    0.920521    0.924281    0.921083    0.925622    0.927629    0.930273    0.931759    0.933039
0.653266    0.918596    0.92188    0.918039    0.922512    0.924429    0.927168    0.928715    0.930095
0.663317    0.916668    0.919456    0.914936    0.919317    0.921119    0.923941    0.925542    0.927024
0.673367    0.914738    0.91701    0.911774    0.916037    0.917695    0.92059    0.922235    0.923818
0.683417    0.912806    0.914545    0.908555    0.912673    0.914157    0.91711    0.918787    0.920471
0.693467    0.910873    0.91206    0.90528    0.909226    0.910503    0.913499    0.915193    0.916975
0.703518    0.908939    0.909558    0.901952    0.905695    0.906732    0.909752    0.911448    0.913323
0.713568    0.907005    0.907039    0.898572    0.902084    0.902844    0.905868    0.907546    0.909507
0.723618    0.905071    0.904506    0.895142    0.898392    0.898837    0.901844    0.903481    0.90552
0.733668    0.903138    0.901958    0.891663    0.894621    0.894714    0.897677    0.899249    0.901355
0.743719    0.901206    0.899398    0.888139    0.890774    0.890472    0.893366    0.894845    0.897003
0.753769    0.899277    0.896826    0.88457    0.886852    0.886114    0.888909    0.890264    0.892459
0.763819    0.897349    0.894244    0.88096    0.882857    0.881641    0.884306    0.885502    0.887714
0.773869    0.895424    0.891654    0.87731    0.878792    0.877053    0.879556    0.880557    0.882764
0.78392    0.893502    0.889055    0.873624    0.87466    0.872354    0.87466    0.875426    0.877601
0.79397    0.891584    0.88645    0.869902    0.870463    0.867546    0.869618    0.870107    0.872221
0.80402    0.889669    0.88384    0.866148    0.866205    0.862631    0.864433    0.864599    0.86662
0.81407    0.887759    0.881225    0.862364    0.861888    0.857613    0.859107    0.858902    0.860794
0.824121    0.885853    0.878608    0.858553    0.857517    0.852497    0.853643    0.853017    0.854743
0.834171    0.883952    0.875988    0.854717    0.853094    0.847285    0.848045    0.846947    0.848464
0.844221    0.882057    0.873367    0.850859    0.848624    0.841983    0.842316    0.840694    0.84196
0.854271    0.880167    0.870747    0.846981    0.844111    0.836596    0.836464    0.834264    0.835232
0.864322    0.878283    0.868127    0.843085    0.839557    0.83113    0.830494    0.827661    0.828286
0.874372    0.876405    0.86551    0.839175    0.834968    0.825589    0.824411    0.820894    0.821126
0.884422    0.874534    0.862896    0.835253    0.830347    0.81998    0.818225    0.813969    0.813761
0.894472    0.87267    0.860286    0.831321    0.825698    0.814309    0.811942    0.806897    0.806201
0.904523    0.870812    0.857681    0.827381    0.821026    0.808584    0.805572    0.799688    0.798456
0.914573    0.868962    0.855081    0.823437    0.816334    0.802809    0.799123    0.792352    0.790541
0.924623    0.867119    0.852489    0.81949    0.811628    0.796993    0.792604    0.784904    0.78247
0.934673    0.865283    0.849903    0.815543    0.80691    0.791141    0.786026    0.777355    0.774259
0.944724    0.863456    0.847326    0.811597    0.802185    0.785262    0.779398    0.769721    0.765926
0.954774    0.861637    0.844759    0.807656    0.797457    0.779361    0.772731    0.762014    0.75749
0.964824    0.859825    0.8422    0.803722    0.79273    0.773447    0.766034    0.754251    0.74897
0.974874    0.858023    0.839653    0.799795    0.788007    0.767525    0.759318    0.746445    0.740387
0.984925    0.856228    0.837116    0.795879    0.783293    0.761602    0.752593    0.738613    0.731761
0.994975    0.854443    0.834591    0.791976    0.778591    0.755685    0.745869    0.730769    0.723113
1.00503    0.852666    0.832079    0.788086    0.773905    0.749781    0.739156    0.722928    0.714463
1.01508    0.850899    0.829579    0.784213    0.769238    0.743895    0.732463    0.715104    0.705831
1.02513    0.84914    0.827093    0.780357    0.764592    0.738034    0.725799    0.707312    0.697237
1.03518    0.847391    0.824621    0.77652    0.759972    0.732202    0.719173    0.699564    0.688698
1.04523    0.845651    0.822163    0.772705    0.75538    0.726406    0.712594    0.691874    0.680233
1.05528    0.84392    0.81972    0.768911    0.750818    0.720651    0.706069    0.684253    0.671857
1.06533    0.842199    0.817292    0.765141    0.74629    0.714941    0.699605    0.676712    0.663585
1.07538    0.840488    0.814881    0.761397    0.741798    0.709281    0.693209    0.669261    0.655431
1.08543    0.838786    0.812485    0.757678    0.737345    0.703676    0.686887    0.661909    0.647406
1.09548    0.837095    0.810106    0.753987    0.732931    0.698128    0.680645    0.654665    0.639521
1.10553    0.835413    0.807743    0.750324    0.72856    0.692641    0.674488    0.647536    0.631786
1.11558    0.83374    0.805398    0.74669    0.724232    0.687219    0.66842    0.640527    0.624207
1.12563    0.832078    0.80307    0.743087    0.71995    0.681865    0.662445    0.633645    0.616792
1.13568    0.830426    0.800759    0.739515    0.715716    0.67658    0.656567    0.626894    0.609545
1.14573    0.828784    0.798467    0.735975    0.711529    0.671368    0.650789    0.620278    0.602471
1.15578    0.827152    0.796192    0.732468    0.707393    0.666231    0.645112    0.6138    0.595571
1.16583    0.82553    0.793936    0.728994    0.703307    0.661169    0.639539    0.607461    0.588847
1.17588    0.823919    0.791698    0.725554    0.699273    0.656184    0.634072    0.601264    0.582301
1.18593    0.822317    0.789479    0.722148    0.695291    0.651279    0.628711    0.595209    0.575933
1.19598    0.820726    0.787278    0.718778    0.691362    0.646452    0.623458    0.589296    0.56974
1.20603    0.819145    0.785097    0.715442    0.687487    0.641706    0.618312    0.583526    0.563723
1.21608    0.817574    0.782934    0.712142    0.683666    0.637041    0.613274    0.577898    0.557878
1.22613    0.816013    0.78079    0.708878    0.679899    0.632457    0.608343    0.57241    0.552204
1.23618    0.814463    0.778666    0.705651    0.676187    0.627954    0.60352    0.567062    0.546696
1.24623    0.812922    0.77656    0.702459    0.672529    0.623532    0.598803    0.56185    0.541353
1.25628    0.811392    0.774474    0.699304    0.668927    0.619191    0.594191    0.556775    0.53617
1.26633    0.809873    0.772407    0.696186    0.665379    0.614931    0.589684    0.551832    0.531144
1.27638    0.808363    0.770359    0.693105    0.661886    0.61075    0.585279    0.54702    0.52627
1.28643    0.806864    0.76833    0.69006    0.658447    0.606649    0.580976    0.542337    0.521544
1.29648    0.805374    0.766321    0.687052    0.655062    0.602627    0.576773    0.537778    0.516963
1.30653    0.803895    0.764331    0.68408    0.651732    0.598683    0.572669    0.533342    0.512521
1.31658    0.802426    0.762359    0.681145    0.648455    0.594816    0.568661    0.529025    0.508215
1.32663    0.800967    0.760407    0.678247    0.645231    0.591025    0.564747    0.524825    0.504041
1.33668    0.799518    0.758475    0.675385    0.64206    0.587309    0.560927    0.520739    0.499993
1.34673    0.798079    0.756561    0.672559    0.638942    0.583668    0.557197    0.516762    0.496068
1.35678    0.79665    0.754666    0.66977    0.635875    0.580099    0.553556    0.512894    0.492262
1.36683    0.795231    0.752789    0.667016    0.632859    0.576601    0.550002    0.509129    0.488571
1.37688    0.793822    0.750932    0.664298    0.629893    0.573175    0.546533    0.505466    0.48499
1.38693    0.792423    0.749093    0.661615    0.626978    0.569817    0.543147    0.501901    0.481516
1.39698    0.791034    0.747273    0.658967    0.624112    0.566528    0.539841    0.498431    0.478145
1.40704    0.789654    0.745472    0.656354    0.621295    0.563305    0.536615    0.495054    0.474873
1.41709    0.788285    0.743688    0.653775    0.618525    0.560148    0.533465    0.491767    0.471698
1.42714    0.786925    0.741923    0.651231    0.615803    0.557055    0.53039    0.488567    0.468614
1.43719    0.785574    0.740176    0.64872    0.613127    0.554025    0.527387    0.48545    0.465619
1.44724    0.784234    0.738447    0.646243    0.610498    0.551056    0.524456    0.482415    0.46271
1.45729    0.782902    0.736736    0.6438    0.607913    0.548148    0.521594    0.47946    0.459884
1.46734    0.781581    0.735043    0.641389    0.605373    0.545298    0.518799    0.47658    0.457137
1.47739    0.780268    0.733367    0.63901    0.602876    0.542506    0.516069    0.473775    0.454467
1.48744    0.778966    0.731709    0.636664    0.600422    0.539771    0.513403    0.471041    0.45187
1.49749    0.777672    0.730068    0.634349    0.598011    0.537091    0.510799    0.468376    0.449345
1.50754    0.776388    0.728445    0.632066    0.59564    0.534465    0.508254    0.465778    0.446889
1.51759    0.775113    0.726838    0.629814    0.593311    0.531891    0.505768    0.463246    0.444498
1.52764    0.773847    0.725248    0.627592    0.591022    0.529369    0.503339    0.460776    0.442172
1.53769    0.77259    0.723675    0.625401    0.588771    0.526897    0.500965    0.458367    0.439906
1.54774    0.771343    0.722118    0.623239    0.58656    0.524474    0.498644    0.456016    0.4377
1.55779    0.770104    0.720578    0.621107    0.584386    0.5221    0.496375    0.453723    0.435552
1.56784    0.768875    0.719055    0.619004    0.582249    0.519772    0.494157    0.451485    0.433458
1.57789    0.767654    0.717547    0.616929    0.580148    0.51749    0.491988    0.4493    0.431418
1.58794    0.766442    0.716055    0.614883    0.578084    0.515252    0.489867    0.447167    0.429428
1.59799    0.765239    0.714579    0.612865    0.576054    0.513058    0.487792    0.445083    0.427489
1.60804    0.764045    0.713119    0.610874    0.574058    0.510906    0.485763    0.443048    0.425597
1.61809    0.762859    0.711674    0.60891    0.572097    0.508796    0.483777    0.441061    0.423751
1.62814    0.761682    0.710244    0.606972    0.570168    0.506727    0.481834    0.439118    0.42195
1.63819    0.760513    0.70883    0.605061    0.568271    0.504697    0.479932    0.43722    0.420192
1.64824    0.759353    0.70743    0.603176    0.566406    0.502706    0.47807    0.435364    0.418476
1.65829    0.758201    0.706045    0.601317    0.564572    0.500752    0.476247    0.433549    0.4168
1.66834    0.757058    0.704675    0.599482    0.562769    0.498835    0.474463    0.431775    0.415163
1.67839    0.755923    0.70332    0.597672    0.560995    0.496954    0.472715    0.430039    0.413563
1.68844    0.754796    0.701978    0.595887    0.559251    0.495107    0.471003    0.428341    0.412
1.69849    0.753677    0.700651    0.594125    0.557535    0.493295    0.469326    0.426679    0.410472
1.70854    0.752567    0.699338    0.592388    0.555848    0.491517    0.467683    0.425053    0.408978
1.71859    0.751464    0.698039    0.590673    0.554188    0.489771    0.466073    0.423461    0.407517
1.72864    0.750369    0.696754    0.588981    0.552554    0.488056    0.464495    0.421903    0.406087
1.73869    0.749283    0.695482    0.587312    0.550947    0.486373    0.462949    0.420377    0.404689
1.74874    0.748204    0.694223    0.585665    0.549366    0.484719    0.461433    0.418882    0.403321
1.75879    0.747133    0.692977    0.58404    0.547811    0.483096    0.459946    0.417417    0.401982
1.76884    0.746069    0.691745    0.582436    0.54628    0.481501    0.458488    0.415983    0.40067
1.77889    0.745014    0.690526    0.580854    0.544773    0.479934    0.457058    0.414576    0.399386
1.78894    0.743966    0.689319    0.579292    0.54329    0.478395    0.455655    0.413198    0.398129
1.79899    0.742925    0.688125    0.577751    0.541831    0.476882    0.454279    0.411847    0.396897
1.80905    0.741892    0.686943    0.57623    0.540394    0.475396    0.452929    0.410522    0.39569
1.8191    0.740866    0.685774    0.574729    0.53898    0.473935    0.451604    0.409223    0.394507
1.82915    0.739848    0.684617    0.573247    0.537588    0.4725    0.450303    0.407949    0.393347
1.8392    0.738837    0.683472    0.571785    0.536217    0.471088    0.449026    0.406699    0.392211
1.84925    0.737834    0.682338    0.570341    0.534868    0.469701    0.447772    0.405472    0.391096
1.8593    0.736837    0.681217    0.568916    0.533539    0.468336    0.446541    0.404269    0.390003
1.86935    0.735848    0.680107    0.567509    0.53223    0.466995    0.445332    0.403087    0.38893
1.8794    0.734865    0.679008    0.566121    0.530941    0.465676    0.444145    0.401927    0.387878
1.88945    0.73389    0.677921    0.56475    0.529671    0.464378    0.442979    0.400789    0.386846
1.8995    0.732921    0.676844    0.563396    0.528421    0.463102    0.441833    0.39967    0.385832
1.90955    0.73196    0.675779    0.56206    0.527189    0.461846    0.440707    0.398572    0.384837
1.9196    0.731005    0.674725    0.56074    0.525975    0.460611    0.4396    0.397494    0.383861
1.92965    0.730057    0.673682    0.559437    0.524779    0.459395    0.438512    0.396434    0.382902
1.9397    0.729116    0.672649    0.558151    0.523601    0.458199    0.437443    0.395393    0.38196
1.94975    0.728182    0.671626    0.55688    0.522441    0.457022    0.436392    0.394369    0.381035
1.9598    0.727254    0.670614    0.555626    0.521297    0.455863    0.435358    0.393363    0.380126
1.96985    0.726332    0.669612    0.554386    0.520169    0.454723    0.434342    0.392375    0.379232
1.9799    0.725417    0.66862    0.553163    0.519058    0.4536    0.433342    0.391403    0.378355
1.98995    0.724509    0.667639    0.551954    0.517963    0.452495    0.432359    0.390447    0.377492
2    0.723607    0.666667    0.55076    0.516883    0.451406    0.431392    0.389507    0.376644
