# h    #|M_z|
0    -0.934074    -0.942027    -0.942444    -0.942469    -0.942471    -0.942471    -0.942471    -0.942471
0.0100503    -0.933384    -0.941569    -0.942003    -0.94203    -0.942031    -0.942032    -0.942032    -0.942032
0.0201005    -0.932679    -0.941103    -0.941556    -0.941584    -0.941586    -0.941586    -0.941586    -0.941586
0.0301508    -0.931958    -0.940631    -0.941103    -0.941133    -0.941135    -0.941135    -0.941135    -0.941135
0.040201    -0.931222    -0.940152    -0.940644    -0.940676    -0.940678    -0.940678    -0.940678    -0.940678
0.0502513    -0.930468    -0.939665    -0.940179    -0.940212    -0.940214    -0.940214    -0.940214    -0.940214
0.0603015    -0.929697    -0.939171    -0.939707    -0.939742    -0.939744    -0.939745    -0.939745    -0.939745
0.0703518    -0.928909    -0.938669    -0.939229    -0.939266    -0.939268    -0.939268    -0.939268    -0.939268
0.080402    -0.928101    -0.93816    -0.938743    -0.938782    -0.938785    -0.938785    -0.938785    -0.938785
0.0904523    -0.927275    -0.937642    -0.938251    -0.938293    -0.938296    -0.938296    -0.938296    -0.938296
0.100503    -0.926428    -0.937115    -0.937752    -0.937796    -0.937799    -0.937799    -0.937799    -0.937799
0.110553    -0.925561    -0.93658    -0.937245    -0.937292    -0.937295    -0.937295    -0.937295    -0.937295
0.120603    -0.924672    -0.936036    -0.936731    -0.936781    -0.936784    -0.936784    -0.936785    -0.936785
0.130653    -0.92376    -0.935483    -0.93621    -0.936262    -0.936266    -0.936266    -0.936266    -0.936266
0.140704    -0.922825    -0.934921    -0.93568    -0.935736    -0.93574    -0.93574    -0.93574    -0.93574
0.150754    -0.921866    -0.934348    -0.935143    -0.935202    -0.935206    -0.935206    -0.935207    -0.935207
0.160804    -0.920881    -0.933766    -0.934597    -0.93466    -0.934664    -0.934665    -0.934665    -0.934665
0.170854    -0.91987    -0.933173    -0.934043    -0.934109    -0.934115    -0.934115    -0.934115    -0.934115
0.180905    -0.918832    -0.93257    -0.93348    -0.933551    -0.933556    -0.933557    -0.933557    -0.933557
0.190955    -0.917765    -0.931955    -0.932909    -0.932983    -0.93299    -0.93299    -0.93299    -0.93299
0.201005    -0.916668    -0.931329    -0.932328    -0.932407    -0.932414    -0.932415    -0.932415    -0.932415
0.211055    -0.91554    -0.930691    -0.931738    -0.931822    -0.93183    -0.93183    -0.93183    -0.93183
0.221106    -0.914379    -0.930041    -0.931138    -0.931228    -0.931236    -0.931237    -0.931237    -0.931237
0.231156    -0.913184    -0.929378    -0.930529    -0.930624    -0.930633    -0.930633    -0.930634    -0.930634
0.241206    -0.911954    -0.928702    -0.929909    -0.930011    -0.93002    -0.930021    -0.930021    -0.930021
0.251256    -0.910687    -0.928012    -0.929279    -0.929387    -0.929397    -0.929398    -0.929398    -0.929398
0.261307    -0.909381    -0.927308    -0.928638    -0.928753    -0.928764    -0.928765    -0.928765    -0.928765
0.271357    -0.908034    -0.926589    -0.927986    -0.928109    -0.92812    -0.928121    -0.928121    -0.928121
0.281407    -0.906644    -0.925855    -0.927322    -0.927453    -0.927466    -0.927467    -0.927467    -0.927467
0.291457    -0.90521    -0.925104    -0.926647    -0.926787    -0.9268    -0.926801    -0.926801    -0.926801
0.301508    -0.903728    -0.924337    -0.925959    -0.926108    -0.926123    -0.926124    -0.926125    -0.926125
0.311558    -0.902198    -0.923553    -0.925259    -0.925418    -0.925434    -0.925436    -0.925436    -0.925436
0.321608    -0.900616    -0.922751    -0.924545    -0.924716    -0.924733    -0.924735    -0.924735    -0.924735
0.331658    -0.898979    -0.921929    -0.923819    -0.924001    -0.92402    -0.924022    -0.924022    -0.924022
0.341709    -0.897286    -0.921088    -0.923078    -0.923273    -0.923293    -0.923296    -0.923296    -0.923296
0.351759    -0.895532    -0.920226    -0.922323    -0.922532    -0.922554    -0.922556    -0.922557    -0.922557
0.361809    -0.893716    -0.919343    -0.921553    -0.921777    -0.921801    -0.921803    -0.921804    -0.921804
0.371859    -0.891833    -0.918437    -0.920767    -0.921007    -0.921033    -0.921036    -0.921037    -0.921037
0.38191    -0.889879    -0.917507    -0.919966    -0.920223    -0.920252    -0.920255    -0.920255    -0.920255
0.39196    -0.887852    -0.916552    -0.919147    -0.919423    -0.919455    -0.919458    -0.919459    -0.919459
0.40201    -0.885746    -0.91557    -0.918312    -0.918608    -0.918642    -0.918646    -0.918647    -0.918647
0.41206    -0.883558    -0.914561    -0.917458    -0.917776    -0.917814    -0.917818    -0.917819    -0.917819
0.422111    -0.881283    -0.913523    -0.916586    -0.916928    -0.916969    -0.916974    -0.916975    -0.916975
0.432161    -0.878915    -0.912454    -0.915693    -0.916062    -0.916107    -0.916112    -0.916113    -0.916113
0.442211    -0.87645    -0.911352    -0.914781    -0.915177    -0.915227    -0.915233    -0.915234    -0.915234
0.452261    -0.873881    -0.910216    -0.913847    -0.914274    -0.914328    -0.914335    -0.914336    -0.914336
0.462312    -0.871203    -0.909043    -0.912891    -0.913351    -0.91341    -0.913418    -0.913419    -0.91342
0.472362    -0.868408    -0.907832    -0.911911    -0.912408    -0.912473    -0.912482    -0.912483    -0.912483
0.482412    -0.86549    -0.906579    -0.910907    -0.911444    -0.911515    -0.911525    -0.911526    -0.911526
0.492462    -0.862441    -0.905282    -0.909877    -0.910457    -0.910535    -0.910546    -0.910548    -0.910548
0.502513    -0.859253    -0.903939    -0.90882    -0.909447    -0.909534    -0.909546    -0.909548    -0.909548
0.512563    -0.855916    -0.902546    -0.907735    -0.908413    -0.908509    -0.908523    -0.908525    -0.908525
0.522613    -0.852421    -0.901099    -0.906619    -0.907354    -0.907459    -0.907475    -0.907478    -0.907478
0.532663    -0.848757    -0.899595    -0.905472    -0.906269    -0.906385    -0.906403    -0.906405    -0.906406
0.542714    -0.844915    -0.89803    -0.904291    -0.905156    -0.905284    -0.905304    -0.905307    -0.905308
0.552764    -0.840881    -0.896399    -0.903075    -0.904013    -0.904156    -0.904179    -0.904182    -0.904183
0.562814    -0.836642    -0.894696    -0.90182    -0.902841    -0.902999    -0.903025    -0.903029    -0.903029
0.572864    -0.832185    -0.892918    -0.900525    -0.901636    -0.901812    -0.901841    -0.901846    -0.901846
0.582915    -0.827493    -0.891056    -0.899188    -0.900398    -0.900593    -0.900626    -0.900632    -0.900632
0.592965    -0.822552    -0.889104    -0.897804    -0.899124    -0.899341    -0.899378    -0.899385    -0.899386
0.603015    -0.817343    -0.887055    -0.89637    -0.897812    -0.898054    -0.898097    -0.898104    -0.898106
0.613065    -0.811847    -0.8849    -0.894884    -0.89646    -0.896731    -0.896779    -0.896788    -0.896789
0.623116    -0.806042    -0.882629    -0.893341    -0.895066    -0.895368    -0.895423    -0.895434    -0.895435
0.633166    -0.799908    -0.880231    -0.891736    -0.893627    -0.893965    -0.894028    -0.89404    -0.894042
0.643216    -0.793418    -0.877695    -0.890064    -0.892139    -0.892518    -0.89259    -0.892604    -0.892607
0.653266    -0.786548    -0.875006    -0.888319    -0.8906    -0.891025    -0.891108    -0.891124    -0.891128
0.663317    -0.779268    -0.872149    -0.886494    -0.889005    -0.889483    -0.889578    -0.889598    -0.889602
0.673367    -0.771548    -0.869106    -0.884583    -0.88735    -0.887889    -0.887999    -0.888022    -0.888027
0.683417    -0.763354    -0.865858    -0.882575    -0.885631    -0.886239    -0.886366    -0.886393    -0.886399
0.693467    -0.754652    -0.862382    -0.880462    -0.883841    -0.884529    -0.884676    -0.884709    -0.884716
0.703518    -0.745401    -0.85865    -0.878232    -0.881976    -0.882756    -0.882926    -0.882964    -0.882973
0.713568    -0.735562    -0.854634    -0.875871    -0.880027    -0.880913    -0.881111    -0.881157    -0.881167
0.723618    -0.725089    -0.850299    -0.873364    -0.877986    -0.878995    -0.879226    -0.879281    -0.879294
0.733668    -0.713934    -0.845605    -0.870693    -0.875844    -0.876995    -0.877266    -0.877331    -0.877347
0.743719    -0.702047    -0.840506    -0.867837    -0.873589    -0.874907    -0.875224    -0.875303    -0.875323
0.753769    -0.689374    -0.834947    -0.864769    -0.871209    -0.872721    -0.873094    -0.873189    -0.873214
0.763819    -0.675858    -0.828866    -0.86146    -0.868687    -0.870427    -0.870868    -0.870983    -0.871014
0.773869    -0.661438    -0.822189    -0.857873    -0.866005    -0.868013    -0.868536    -0.868676    -0.868715
0.78392    -0.646051    -0.81483    -0.853964    -0.86314    -0.865466    -0.866088    -0.866259    -0.866308
0.79397    -0.629631    -0.806688    -0.84968    -0.860065    -0.862768    -0.86351    -0.863721    -0.863782
0.80402    -0.612112    -0.797641    -0.844954    -0.856744    -0.859897    -0.860788    -0.861048    -0.861126
0.81407    -0.593426    -0.787547    -0.839705    -0.853135    -0.85683    -0.857903    -0.858226    -0.858325
0.824121    -0.573503    -0.776237    -0.83383    -0.849185    -0.853534    -0.854834    -0.855237    -0.855364
0.834171    -0.552277    -0.763509    -0.827203    -0.844825    -0.849968    -0.851552    -0.852057    -0.852223
0.844221    -0.529685    -0.749125    -0.819658    -0.839964    -0.846081    -0.848022    -0.848661    -0.848877
0.854271    -0.505666    -0.732799    -0.810986    -0.834487    -0.841804    -0.844199    -0.845013    -0.845297
0.864322    -0.480169    -0.714195    -0.800914    -0.828237    -0.837045    -0.840024    -0.84107    -0.841447
0.874372    -0.453151    -0.692914    -0.789086    -0.821    -0.831681    -0.835416    -0.836773    -0.837279
0.884422    -0.424584    -0.668493    -0.77503    -0.812482    -0.825535    -0.830265    -0.832043    -0.83273
0.894472    -0.394453    -0.640393    -0.758115    -0.802267    -0.818357    -0.82441    -0.826769    -0.827714
0.904523    -0.362763    -0.608009    -0.737494    -0.789751    -0.809772    -0.817614    -0.820789    -0.82211
0.914573    -0.329542    -0.570677    -0.712023    -0.774046    -0.799208    -0.809512    -0.813855    -0.815736
0.924623    -0.294842    -0.527706    -0.680161    -0.753805    -0.785754    -0.799511    -0.805569    -0.808304
0.934673    -0.258741    -0.478427    -0.639858    -0.726946    -0.767895    -0.786597    -0.795244    -0.79933
0.944724    -0.221349    -0.422287    -0.588469    -0.6902    -0.743005    -0.768923    -0.78161    -0.787915
0.954774    -0.182801    -0.358967    -0.522787    -0.638415    -0.706309    -0.742871    -0.762085    -0.772218
0.964824    -0.143262    -0.288528    -0.439423    -0.563726    -0.648816    -0.700751    -0.730803    -0.74792
0.974874    -0.102923    -0.211561    -0.335807    -0.455394    -0.553701    -0.624987    -0.67258    -0.702968
0.984925    -0.061994    -0.129277    -0.211994    -0.303058    -0.393665    -0.475557    -0.543532    -0.59626
0.994975    -0.0207051    -0.0434994    -0.0726385    -0.107416    -0.147035    -0.19052    -0.236677    -0.284129
1.00503    0.0207051    0.0434994    0.0726385    0.107416    0.147035    0.19052    0.236677    0.284129
1.01508    0.061994    0.129277    0.211994    0.303058    0.393665    0.475557    0.543532    0.59626
1.02513    0.102923    0.211561    0.335807    0.455394    0.553701    0.624987    0.67258    0.702968
1.03518    0.143262    0.288528    0.439423    0.563726    0.648816    0.700751    0.730803    0.74792
1.04523    0.182801    0.358967    0.522787    0.638415    0.706309    0.742871    0.762085    0.772218
1.05528    0.221349    0.422287    0.588469    0.6902    0.743005    0.768923    0.78161    0.787915
1.06533    0.258741    0.478427    0.639858    0.726946    0.767895    0.786597    0.795244    0.79933
1.07538    0.294842    0.527706    0.680161    0.753805    0.785754    0.799511    0.805569    0.808304
1.08543    0.329542    0.570677    0.712023    0.774046    0.799208    0.809512    0.813855    0.815736
1.09548    0.362763    0.608009    0.737494    0.789751    0.809772    0.817614    0.820789    0.82211
1.10553    0.394453    0.640393    0.758115    0.802267    0.818357    0.82441    0.826769    0.827714
1.11558    0.424584    0.668493    0.77503    0.812482    0.825535    0.830265    0.832043    0.83273
1.12563    0.453151    0.692914    0.789086    0.821    0.831681    0.835416    0.836773    0.837279
1.13568    0.480169    0.714195    0.800914    0.828237    0.837045    0.840024    0.84107    0.841447
1.14573    0.505666    0.732799    0.810986    0.834487    0.841804    0.844199    0.845013    0.845297
1.15578    0.529685    0.749125    0.819658    0.839964    0.846081    0.848022    0.848661    0.848877
1.16583    0.552277    0.763509    0.827203    0.844825    0.849968    0.851552    0.852057    0.852223
1.17588    0.573503    0.776237    0.83383    0.849185    0.853534    0.854834    0.855237    0.855364
1.18593    0.593426    0.787547    0.839705    0.853135    0.85683    0.857903    0.858226    0.858325
1.19598    0.612112    0.797641    0.844954    0.856744    0.859897    0.860788    0.861048    0.861126
1.20603    0.629631    0.806688    0.84968    0.860065    0.862768    0.86351    0.863721    0.863782
1.21608    0.646051    0.81483    0.853964    0.86314    0.865466    0.866088    0.866259    0.866308
1.22613    0.661438    0.822189    0.857873    0.866005    0.868013    0.868536    0.868676    0.868715
1.23618    0.675858    0.828866    0.86146    0.868687    0.870427    0.870868    0.870983    0.871014
1.24623    0.689374    0.834947    0.864769    0.871209    0.872721    0.873094    0.873189    0.873214
1.25628    0.702047    0.840506    0.867837    0.873589    0.874907    0.875224    0.875303    0.875323
1.26633    0.713934    0.845605    0.870693    0.875844    0.876995    0.877266    0.877331    0.877347
1.27638    0.725089    0.850299    0.873364    0.877986    0.878995    0.879226    0.879281    0.879294
1.28643    0.735562    0.854634    0.875871    0.880027    0.880913    0.881111    0.881157    0.881167
1.29648    0.745401    0.85865    0.878232    0.881976    0.882756    0.882926    0.882964    0.882973
1.30653    0.754652    0.862382    0.880462    0.883841    0.884529    0.884676    0.884709    0.884716
1.31658    0.763354    0.865858    0.882575    0.885631    0.886239    0.886366    0.886393    0.886399
1.32663    0.771548    0.869106    0.884583    0.88735    0.887889    0.887999    0.888022    0.888027
1.33668    0.779268    0.872149    0.886494    0.889005    0.889483    0.889578    0.889598    0.889602
1.34673    0.786548    0.875006    0.888319    0.8906    0.891025    0.891108    0.891124    0.891128
1.35678    0.793418    0.877695    0.890064    0.892139    0.892518    0.89259    0.892604    0.892607
1.36683    0.799908    0.880231    0.891736    0.893627    0.893965    0.894028    0.89404    0.894042
1.37688    0.806042    0.882629    0.893341    0.895066    0.895368    0.895423    0.895434    0.895435
1.38693    0.811847    0.8849    0.894884    0.89646    0.896731    0.896779    0.896788    0.896789
1.39698    0.817343    0.887055    0.89637    0.897812    0.898054    0.898097    0.898104    0.898106
1.40704    0.822552    0.889104    0.897804    0.899124    0.899341    0.899378    0.899385    0.899386
1.41709    0.827493    0.891056    0.899188    0.900398    0.900593    0.900626    0.900632    0.900632
1.42714    0.832185    0.892918    0.900525    0.901636    0.901812    0.901841    0.901846    0.901846
1.43719    0.836642    0.894696    0.90182    0.902841    0.902999    0.903025    0.903029    0.903029
1.44724    0.840881    0.896399    0.903075    0.904013    0.904156    0.904179    0.904182    0.904183
1.45729    0.844915    0.89803    0.904291    0.905156    0.905284    0.905304    0.905307    0.905308
1.46734    0.848757    0.899595    0.905472    0.906269    0.906385    0.906403    0.906405    0.906406
1.47739    0.852421    0.901099    0.906619    0.907354    0.907459    0.907475    0.907478    0.907478
1.48744    0.855916    0.902546    0.907735    0.908413    0.908509    0.908523    0.908525    0.908525
1.49749    0.859253    0.903939    0.90882    0.909447    0.909534    0.909546    0.909548    0.909548
1.50754    0.862441    0.905282    0.909877    0.910457    0.910535    0.910546    0.910548    0.910548
1.51759    0.86549    0.906579    0.910907    0.911444    0.911515    0.911525    0.911526    0.911526
1.52764    0.868408    0.907832    0.911911    0.912408    0.912473    0.912482    0.912483    0.912483
1.53769    0.871203    0.909043    0.912891    0.913351    0.91341    0.913418    0.913419    0.91342
1.54774    0.873881    0.910216    0.913847    0.914274    0.914328    0.914335    0.914336    0.914336
1.55779    0.87645    0.911352    0.914781    0.915177    0.915227    0.915233    0.915234    0.915234
1.56784    0.878915    0.912454    0.915693    0.916062    0.916107    0.916112    0.916113    0.916113
1.57789    0.881283    0.913523    0.916586    0.916928    0.916969    0.916974    0.916975    0.916975
1.58794    0.883558    0.914561    0.917458    0.917776    0.917814    0.917818    0.917819    0.917819
1.59799    0.885746    0.91557    0.918312    0.918608    0.918642    0.918646    0.918647    0.918647
1.60804    0.887852    0.916552    0.919147    0.919423    0.919455    0.919458    0.919459    0.919459
1.61809    0.889879    0.917507    0.919966    0.920223    0.920252    0.920255    0.920255    0.920255
1.62814    0.891833    0.918437    0.920767    0.921007    0.921033    0.921036    0.921037    0.921037
1.63819    0.893716    0.919343    0.921553    0.921777    0.921801    0.921803    0.921804    0.921804
1.64824    0.895532    0.920226    0.922323    0.922532    0.922554    0.922556    0.922557    0.922557
1.65829    0.897286    0.921088    0.923078    0.923273    0.923293    0.923296    0.923296    0.923296
1.66834    0.898979    0.921929    0.923819    0.924001    0.92402    0.924022    0.924022    0.924022
1.67839    0.900616    0.922751    0.924545    0.924716    0.924733    0.924735    0.924735    0.924735
1.68844    0.902198    0.923553    0.925259    0.925418    0.925434    0.925436    0.925436    0.925436
1.69849    0.903728    0.924337    0.925959    0.926108    0.926123    0.926124    0.926125    0.926125
1.70854    0.90521    0.925104    0.926647    0.926787    0.9268    0.926801    0.926801    0.926801
1.71859    0.906644    0.925855    0.927322    0.927453    0.927466    0.927467    0.927467    0.927467
1.72864    0.908034    0.926589    0.927986    0.928109    0.92812    0.928121    0.928121    0.928121
1.73869    0.909381    0.927308    0.928638    0.928753    0.928764    0.928765    0.928765    0.928765
1.74874    0.910687    0.928012    0.929279    0.929387    0.929397    0.929398    0.929398    0.929398
1.75879    0.911954    0.928702    0.929909    0.930011    0.93002    0.930021    0.930021    0.930021
1.76884    0.913184    0.929378    0.930529    0.930624    0.930633    0.930633    0.930634    0.930634
1.77889    0.914379    0.930041    0.931138    0.931228    0.931236    0.931237    0.931237    0.931237
1.78894    0.91554    0.930691    0.931738    0.931822    0.93183    0.93183    0.93183    0.93183
1.79899    0.916668    0.931329    0.932328    0.932407    0.932414    0.932415    0.932415    0.932415
1.80905    0.917765    0.931955    0.932909    0.932983    0.93299    0.93299    0.93299    0.93299
1.8191    0.918832    0.93257    0.93348    0.933551    0.933556    0.933557    0.933557    0.933557
1.82915    0.91987    0.933173    0.934043    0.934109    0.934115    0.934115    0.934115    0.934115
1.8392    0.920881    0.933766    0.934597    0.93466    0.934664    0.934665    0.934665    0.934665
1.84925    0.921866    0.934348    0.935143    0.935202    0.935206    0.935206    0.935207    0.935207
1.8593    0.922825    0.934921    0.93568    0.935736    0.93574    0.93574    0.93574    0.93574
1.86935    0.92376    0.935483    0.93621    0.936262    0.936266    0.936266    0.936266    0.936266
1.8794    0.924672    0.936036    0.936731    0.936781    0.936784    0.936784    0.936785    0.936785
1.88945    0.925561    0.93658    0.937245    0.937292    0.937295    0.937295    0.937295    0.937295
1.8995    0.926428    0.937115    0.937752    0.937796    0.937799    0.937799    0.937799    0.937799
1.90955    0.927275    0.937642    0.938251    0.938293    0.938296    0.938296    0.938296    0.938296
1.9196    0.928101    0.93816    0.938743    0.938782    0.938785    0.938785    0.938785    0.938785
1.92965    0.928909    0.938669    0.939229    0.939266    0.939268    0.939268    0.939268    0.939268
1.9397    0.929697    0.939171    0.939707    0.939742    0.939744    0.939745    0.939745    0.939745
1.94975    0.930468    0.939665    0.940179    0.940212    0.940214    0.940214    0.940214    0.940214
1.9598    0.931222    0.940152    0.940644    0.940676    0.940678    0.940678    0.940678    0.940678
1.96985    0.931958    0.940631    0.941103    0.941133    0.941135    0.941135    0.941135    0.941135
1.9799    0.932679    0.941103    0.941556    0.941584    0.941586    0.941586    0.941586    0.941586
1.98995    0.933384    0.941569    0.942003    0.94203    0.942031    0.942032    0.942032    0.942032
2    0.934074    0.942027    0.942444    0.942469    0.942471    0.942471    0.942471    0.942471
